{
    "title": "World",
    "short_description": "The unpredictable charms spread across the foreign lands, are waiting to be known, waiting to be experienced!",
    "long_description": "Pinning the world map to the wall and choosing a destination on the blindfolded shot of a dart, was an aspiration of the era that lived decades ago. However hard it was in those times, we’ve reached a stage now, where making that ambition come true is absolutely possible. Making the world accessible, we at Columbus Vacations as pioneers of innovative domestic and international holiday packages aim to deliver exceptional travel experiences for you. With ideal perceptions, we help you choose intricately designed best tour packages that are available with us. We strive to best serve the traveller’s interests and offer perfect getaways to discover the world’s alluring scenic beauty. Our international tour packages are supervised by professional tour managers who bring new life to each tour. Whatever you crave for, may it be a Desert Safari in Dubai, or Parasailing in Thailand, or being at the Top of Europe (Jungfrau, Switzerland), we have it all! Exploring the world along with your special one can bring a whole new life to your tour with our international honeymoon packages. We empower you to make the most fascinating memories with us and relish our legacy to travel, explore and celebrate life.",
    "search_title": "World Holiday Packages",
    "information": "India is one of the world’s most treasured countries that boasts of astounding natural beauty, historical heritage, religious spots, and mesmerizing sightseeing spots. From iconic temples to ancient forts and palaces, quaint picture-postcard villages and breath-taking, natural scenery– India is known for its diversity and extravagance. Visit the nature’s potpourri that is India, blessed with remarkable history and nature’s benevolence along with our perfectly crafted online travel packages in India. As one of the best travel agency in India, Veena World specializes in tailor-made tours of the top holiday destinations in India whereby you can enjoy every place of your interest in India, at the best price. We are here to cater to the best of your interests and preferences. Just let us know what you’re looking for in your travel package, and we'll address the rest. With our in-depth knowledge of India, we can arrange everything from hotels and meals, transportation, tickets and everything else - chosen to suit your group’s interests. We help you design well-paced budget holiday packages in India. Just explore our affordably priced tour packages in India, choose your favourite and book holiday packages online with us. Let Veena World design for you, a trip to remember! Your choice stands as our priority, may it be for adventure or for leisure, for one country special or two or even multi country, for some special reason like honeymoon or just a short escape travel, for a desire to travel alone or with family and all of it is made possible with Veena World! Your go-to travel companion for the best holiday spots in India.",
    "packages": [
        {
            "tour_type": "Group Tour",
            "code": "ASSL",
            "title": "Sri Lankan Jewels",
            "price_starts_from": 50000,
            "no_of_countries": 1,
            "tour_duration": 6,
            "thumbnail": "https://img.veenaworld.com/group-tours/world/sri-lanka/asgy/asgy-thb.jpg"
        },
        {
            "tour_type": "Group Tour",
            "code": "EUDL",
            "title": "European Delights",
            "price_starts_from": 125000,
            "no_of_countries": 4,
            "tour_duration": 6,
            "thumbnail": "https://img.veenaworld.com/group-tours/world/europe/eugj/eugj-thb.jpg"
        },
        {
            "tour_type": "Group Tour",
            "code": "ASSG",
            "title": "Singapore Malaysia Escape ",
            "price_starts_from": 78000,
            "no_of_countries": 2,
            "tour_duration": 6,
            "thumbnail": "https://img.veenaworld.com/group-tours/world/south-east-asia/aszm/aszm-thb.jpg"
        },
        {
            "tour_type": "Customized Holiday",
            "code": "ASBL",
            "title": "Bali Bonanza",
            "price_starts_from": 72000,
            "no_of_countries": 1,
            "tour_duration": 8,
            "thumbnail": "https://img.veenaworld.com/group-tours/world/south-east-asia/aswj/aswj-thb.jpg"
        },
        {
            "tour_type": "Group Tour (Excl. Flights)",
            "code": "EUPA",
            "title": "European Panorama",
            "price_starts_from": 150000,
            "no_of_countries": 8,
            "tour_duration": 12,
            "thumbnail": "https://img.veenaworld.com/group-tours/world/europe/eutk/eutk-thb-1.jpg"
        },
        {
            "tour_type": "Group Tour",
            "code": "AFKJ",
            "title": "Kenya Jewels",
            "price_starts_from": 150000,
            "no_of_countries": 1,
            "tour_duration": 7,
            "thumbnail": "https://img.veenaworld.com/group-tours/world/africa/afks/afks-thb-1.jpg"
        }
    ]
}